Library\Bee\artifacts\mvdfrm\Unity.2D.Sprite.Editor.ref.dll_DDBAA27A82CE9E28.mvfrm
Library\Bee\artifacts\mvdfrm\Unity.2D.Tilemap.Editor.ref.dll_436C0E2610862891.mvfrm
Library\Bee\artifacts\mvdfrm\Unity.Analytics.DataPrivacy.ref.dll_B44BF53B55CD31DE.mvfrm
Library\Bee\artifacts\mvdfrm\Unity.Burst.Editor.ref.dll_E2F92DAB6C167CC9.mvfrm
Library\Bee\artifacts\mvdfrm\Unity.Burst.ref.dll_F30DFA20C0DD1968.mvfrm
Library\Bee\artifacts\mvdfrm\Unity.Mathematics.Editor.ref.dll_9A20CFD48BC11F43.mvfrm
Library\Bee\artifacts\mvdfrm\Unity.Mathematics.ref.dll_E8EFDB1B8D5C174E.mvfrm
Library\Bee\artifacts\mvdfrm\Unity.PlasticSCM.Editor.ref.dll_257AEB342BE77856.mvfrm
Library\Bee\artifacts\mvdfrm\Unity.RenderPipeline.Universal.ShaderLibrary.ref.dll_5436F99F8BDCED8B.mvfrm
Library\Bee\artifacts\mvdfrm\Unity.RenderPipelines.Core.Editor.ref.dll_46EB9B6930B27991.mvfrm
Library\Bee\artifacts\mvdfrm\Unity.RenderPipelines.Core.Runtime.ref.dll_CE6A42C97D96EB0A.mvfrm
Library\Bee\artifacts\mvdfrm\Unity.RenderPipelines.Core.ShaderLibrary.ref.dll_7F2C410A434F5518.mvfrm
Library\Bee\artifacts\mvdfrm\Unity.RenderPipelines.ShaderGraph.ShaderGraphLibrary.ref.dll_1A2083B43FB0BF18.mvfrm
Library\Bee\artifacts\mvdfrm\Unity.RenderPipelines.Universal.Editor.ref.dll_0FF7AC68384616B1.mvfrm
Library\Bee\artifacts\mvdfrm\Unity.RenderPipelines.Universal.Runtime.ref.dll_5400A10AF7CC6BEA.mvfrm
Library\Bee\artifacts\mvdfrm\Unity.RenderPipelines.Universal.Shaders.ref.dll_9468B054363B0720.mvfrm
Library\Bee\artifacts\mvdfrm\Unity.Rider.Editor.ref.dll_9B5591808ABA37AF.mvfrm
Library\Bee\artifacts\mvdfrm\Unity.Searcher.Editor.ref.dll_12B7E1785E41BE0E.mvfrm
Library\Bee\artifacts\mvdfrm\Unity.Services.Core.Analytics.ref.dll_EDA1682A714EA6BF.mvfrm
Library\Bee\artifacts\mvdfrm\Unity.Services.Core.Environments.ref.dll_7E0AC2CDE81D9C6D.mvfrm
Library\Bee\artifacts\mvdfrm\Unity.Services.Core.ref.dll_131AC9C5EC6E6517.mvfrm
Library\Bee\artifacts\mvdfrm\Unity.ShaderGraph.Editor.ref.dll_0F50152946DB09D0.mvfrm
Library\Bee\artifacts\mvdfrm\Unity.TextMeshPro.Editor.ref.dll_159E061D77A10B86.mvfrm
Library\Bee\artifacts\mvdfrm\Unity.TextMeshPro.ref.dll_84A4293DBDD182DB.mvfrm
Library\Bee\artifacts\mvdfrm\Unity.Timeline.Editor.ref.dll_0D3D3C0B73557612.mvfrm
Library\Bee\artifacts\mvdfrm\Unity.Timeline.ref.dll_621CDDF9C514DF8F.mvfrm
Library\Bee\artifacts\mvdfrm\Unity.VSCode.Editor.ref.dll_3628369EB48E4C19.mvfrm
Library\Bee\artifacts\mvdfrm\Unity.VisualScripting.Core.Editor.ref.dll_EDC8690F57C5BDFD.mvfrm
Library\Bee\artifacts\mvdfrm\Unity.VisualScripting.Core.ref.dll_D75DF4EA1AFE54F4.mvfrm
Library\Bee\artifacts\mvdfrm\Unity.VisualScripting.Flow.Editor.ref.dll_6AF951BE66A4493E.mvfrm
Library\Bee\artifacts\mvdfrm\Unity.VisualScripting.Flow.ref.dll_1E6ED5409D07C9A3.mvfrm
Library\Bee\artifacts\mvdfrm\Unity.VisualScripting.SettingsProvider.Editor.ref.dll_A1A44354E0B583A8.mvfrm
Library\Bee\artifacts\mvdfrm\Unity.VisualScripting.Shared.Editor.ref.dll_9669F6EBFF6DFFB7.mvfrm
Library\Bee\artifacts\mvdfrm\Unity.VisualScripting.State.Editor.ref.dll_E03858E727F23F6F.mvfrm
Library\Bee\artifacts\mvdfrm\Unity.VisualScripting.State.ref.dll_D91762B7076BE462.mvfrm
Library\Bee\artifacts\mvdfrm\Unity.VisualStudio.Editor.ref.dll_3A975DBA53ABA4AD.mvfrm
Library\Bee\artifacts\mvdfrm\UnityEditor.Purchasing.ref.dll_8A54E68F887CD9BF.mvfrm
Library\Bee\artifacts\mvdfrm\UnityEditor.SpatialTracking.ref.dll_8911EA67839E93F0.mvfrm
Library\Bee\artifacts\mvdfrm\UnityEditor.UI.ref.dll_4C98D3F7040CD4F5.mvfrm
Library\Bee\artifacts\mvdfrm\UnityEditor.XR.LegacyInputHelpers.ref.dll_3F12D550ED6E7C7D.mvfrm
Library\Bee\artifacts\mvdfrm\UnityEngine.Advertisements.Editor.ref.dll_95BDE7AB6BD0B967.mvfrm
Library\Bee\artifacts\mvdfrm\UnityEngine.Advertisements.ref.dll_324BF20D18302AEA.mvfrm
Library\Bee\artifacts\mvdfrm\UnityEngine.Purchasing.Codeless.ref.dll_513D40CFE18D69D0.mvfrm
Library\Bee\artifacts\mvdfrm\UnityEngine.Purchasing.SecurityCore.ref.dll_A4738A01776218D9.mvfrm
Library\Bee\artifacts\mvdfrm\UnityEngine.Purchasing.SecurityStub.ref.dll_EF9A4EF51ACED418.mvfrm
Library\Bee\artifacts\mvdfrm\UnityEngine.Purchasing.Stores.ref.dll_D1DFD8417D6A87AC.mvfrm
Library\Bee\artifacts\mvdfrm\UnityEngine.Purchasing.ref.dll_5673313DB44037AA.mvfrm
Library\Bee\artifacts\mvdfrm\UnityEngine.SpatialTracking.ref.dll_1552DC8EFC971715.mvfrm
Library\Bee\artifacts\mvdfrm\UnityEngine.UI.ref.dll_08FEAA520A2EFD60.mvfrm
Library\Bee\artifacts\mvdfrm\UnityEngine.XR.LegacyInputHelpers.ref.dll_FFA26A0728B3CF82.mvfrm
Library\Bee\artifacts\mvdfrm\UnityEditor.CoreModule.dll_C6269DFEE66A7A91.mvfrm
Library\Bee\artifacts\mvdfrm\UnityEditor.DeviceSimulatorModule.dll_E7F2941AD24E6F00.mvfrm
Library\Bee\artifacts\mvdfrm\UnityEditor.DiagnosticsModule.dll_89B5FECFA70AE14E.mvfrm
Library\Bee\artifacts\mvdfrm\UnityEditor.dll_C0F174526829CA34.mvfrm
Library\Bee\artifacts\mvdfrm\UnityEditor.GraphViewModule.dll_C7CB933CD175E765.mvfrm
Library\Bee\artifacts\mvdfrm\UnityEditor.PackageManagerUIModule.dll_E831F95CB949ACAD.mvfrm
Library\Bee\artifacts\mvdfrm\UnityEditor.QuickSearchModule.dll_14C57FDCFFE1DDA7.mvfrm
Library\Bee\artifacts\mvdfrm\UnityEditor.SceneTemplateModule.dll_9500607E595F6708.mvfrm
Library\Bee\artifacts\mvdfrm\UnityEditor.TextCoreFontEngineModule.dll_A0BA5B502CFC54EF.mvfrm
Library\Bee\artifacts\mvdfrm\UnityEditor.TextCoreTextEngineModule.dll_E8A291C1BC800E0D.mvfrm
Library\Bee\artifacts\mvdfrm\UnityEditor.UIBuilderModule.dll_1C544059442E6099.mvfrm
Library\Bee\artifacts\mvdfrm\UnityEditor.UIElementsModule.dll_C48CD4E20831DA2D.mvfrm
Library\Bee\artifacts\mvdfrm\UnityEditor.UIElementsSamplesModule.dll_E9CE926E242E6910.mvfrm
Library\Bee\artifacts\mvdfrm\UnityEditor.UIServiceModule.dll_554651BC2D65B0B3.mvfrm
Library\Bee\artifacts\mvdfrm\UnityEditor.UnityConnectModule.dll_856B25C671C371C7.mvfrm
Library\Bee\artifacts\mvdfrm\UnityEngine.AccessibilityModule.dll_C7A5CC1559D58EA5.mvfrm
Library\Bee\artifacts\mvdfrm\UnityEngine.AIModule.dll_5289733CA71F20C5.mvfrm
Library\Bee\artifacts\mvdfrm\UnityEngine.AndroidJNIModule.dll_42D5BDB551514903.mvfrm
Library\Bee\artifacts\mvdfrm\UnityEngine.AnimationModule.dll_96510F65ABD2BC0B.mvfrm
Library\Bee\artifacts\mvdfrm\UnityEngine.ARModule.dll_0BFC3840043C7F8E.mvfrm
Library\Bee\artifacts\mvdfrm\UnityEngine.AssetBundleModule.dll_58AEB2CE62489299.mvfrm
Library\Bee\artifacts\mvdfrm\UnityEngine.AudioModule.dll_88AD5CC0F4D9A23D.mvfrm
Library\Bee\artifacts\mvdfrm\UnityEngine.ClothModule.dll_EF95B9BBCEF68121.mvfrm
Library\Bee\artifacts\mvdfrm\UnityEngine.ClusterInputModule.dll_05079ADC234B448D.mvfrm
Library\Bee\artifacts\mvdfrm\UnityEngine.ClusterRendererModule.dll_ED9F568C42097C84.mvfrm
Library\Bee\artifacts\mvdfrm\UnityEngine.CoreModule.dll_E94771518E6FE5BC.mvfrm
Library\Bee\artifacts\mvdfrm\UnityEngine.CrashReportingModule.dll_7BF2E3D497FD66D4.mvfrm
Library\Bee\artifacts\mvdfrm\UnityEngine.DirectorModule.dll_F41FFEC7CC77C2D9.mvfrm
Library\Bee\artifacts\mvdfrm\UnityEngine.dll_F395BB2AC69D5719.mvfrm
Library\Bee\artifacts\mvdfrm\UnityEngine.DSPGraphModule.dll_F97160313ED893FA.mvfrm
Library\Bee\artifacts\mvdfrm\UnityEngine.GameCenterModule.dll_6D2307D0179239F4.mvfrm
Library\Bee\artifacts\mvdfrm\UnityEngine.GIModule.dll_EAC5BC4A42CE08DF.mvfrm
Library\Bee\artifacts\mvdfrm\UnityEngine.GridModule.dll_C6B88D3FA6C47BB3.mvfrm
Library\Bee\artifacts\mvdfrm\UnityEngine.HotReloadModule.dll_1799CD6B8705D78D.mvfrm
Library\Bee\artifacts\mvdfrm\UnityEngine.ImageConversionModule.dll_5991543CC42E3478.mvfrm
Library\Bee\artifacts\mvdfrm\UnityEngine.IMGUIModule.dll_C10CFC27BB0B361E.mvfrm
Library\Bee\artifacts\mvdfrm\UnityEngine.InputLegacyModule.dll_E9F3CDECFA3A488A.mvfrm
Library\Bee\artifacts\mvdfrm\UnityEngine.InputModule.dll_EF2324716B11C6E1.mvfrm
Library\Bee\artifacts\mvdfrm\UnityEngine.JSONSerializeModule.dll_27BD55515910EF2F.mvfrm
Library\Bee\artifacts\mvdfrm\UnityEngine.LocalizationModule.dll_4354652EBAC73786.mvfrm
Library\Bee\artifacts\mvdfrm\UnityEngine.ParticleSystemModule.dll_CF052D21060EF262.mvfrm
Library\Bee\artifacts\mvdfrm\UnityEngine.PerformanceReportingModule.dll_B02859471EE4367B.mvfrm
Library\Bee\artifacts\mvdfrm\UnityEngine.Physics2DModule.dll_E2F6FF564CCFB3A0.mvfrm
Library\Bee\artifacts\mvdfrm\UnityEngine.PhysicsModule.dll_A7C8B8AF087BA6AE.mvfrm
Library\Bee\artifacts\mvdfrm\UnityEngine.ProfilerModule.dll_266637FE65D149E6.mvfrm
Library\Bee\artifacts\mvdfrm\UnityEngine.RuntimeInitializeOnLoadManagerInitializerModule.dll_5BFE233F367C6469.mvfrm
Library\Bee\artifacts\mvdfrm\UnityEngine.ScreenCaptureModule.dll_41A502D66D7D1B91.mvfrm
Library\Bee\artifacts\mvdfrm\UnityEngine.SharedInternalsModule.dll_DDA293123B5C2FC8.mvfrm
Library\Bee\artifacts\mvdfrm\UnityEngine.SpriteMaskModule.dll_564F7A603901CF6E.mvfrm
Library\Bee\artifacts\mvdfrm\UnityEngine.SpriteShapeModule.dll_720FE02917EACAA3.mvfrm
Library\Bee\artifacts\mvdfrm\UnityEngine.StreamingModule.dll_4AE5FCB5FB5A7349.mvfrm
Library\Bee\artifacts\mvdfrm\UnityEngine.SubstanceModule.dll_279110FF46AD7157.mvfrm
Library\Bee\artifacts\mvdfrm\UnityEngine.SubsystemsModule.dll_C0FCE0C20749B781.mvfrm
Library\Bee\artifacts\mvdfrm\UnityEngine.TerrainModule.dll_C20F341DDE39EF9C.mvfrm
Library\Bee\artifacts\mvdfrm\UnityEngine.TerrainPhysicsModule.dll_CF7FD5F41F51ECEF.mvfrm
Library\Bee\artifacts\mvdfrm\UnityEngine.TextCoreFontEngineModule.dll_1F19D6A33FFA13BA.mvfrm
Library\Bee\artifacts\mvdfrm\UnityEngine.TextCoreTextEngineModule.dll_67020D14CF7DCCD8.mvfrm
Library\Bee\artifacts\mvdfrm\UnityEngine.TextRenderingModule.dll_6AE474E124B49B86.mvfrm
Library\Bee\artifacts\mvdfrm\UnityEngine.TilemapModule.dll_610B9B9EF5F6D0A5.mvfrm
Library\Bee\artifacts\mvdfrm\UnityEngine.TLSModule.dll_83CA69829DDF9C02.mvfrm
Library\Bee\artifacts\mvdfrm\UnityEngine.UIElementsModule.dll_C53B422A0A75F378.mvfrm
Library\Bee\artifacts\mvdfrm\UnityEngine.UIElementsNativeModule.dll_32ABADF22AC21CCF.mvfrm
Library\Bee\artifacts\mvdfrm\UnityEngine.UIModule.dll_4DFD116A03662671.mvfrm
Library\Bee\artifacts\mvdfrm\UnityEngine.UmbraModule.dll_038208D982004DB0.mvfrm
Library\Bee\artifacts\mvdfrm\UnityEngine.UNETModule.dll_7BEDB93ADB7EDB35.mvfrm
Library\Bee\artifacts\mvdfrm\UnityEngine.UnityAnalyticsCommonModule.dll_4B67168B38CCD4D9.mvfrm
Library\Bee\artifacts\mvdfrm\UnityEngine.UnityAnalyticsModule.dll_EEA49DEAB236445E.mvfrm
Library\Bee\artifacts\mvdfrm\UnityEngine.UnityConnectModule.dll_72CAA9D56C4B7272.mvfrm
Library\Bee\artifacts\mvdfrm\UnityEngine.UnityCurlModule.dll_C96DB0971BE6ADF8.mvfrm
Library\Bee\artifacts\mvdfrm\UnityEngine.UnityTestProtocolModule.dll_A59148607E29BE66.mvfrm
Library\Bee\artifacts\mvdfrm\UnityEngine.UnityWebRequestAssetBundleModule.dll_50344D11CA3B7DAF.mvfrm
Library\Bee\artifacts\mvdfrm\UnityEngine.UnityWebRequestAudioModule.dll_2824AD25A54F0113.mvfrm
Library\Bee\artifacts\mvdfrm\UnityEngine.UnityWebRequestModule.dll_6B305BE6CF22CEF7.mvfrm
Library\Bee\artifacts\mvdfrm\UnityEngine.UnityWebRequestTextureModule.dll_EB3F6151168FC748.mvfrm
Library\Bee\artifacts\mvdfrm\UnityEngine.UnityWebRequestWWWModule.dll_31C45270BF3D8944.mvfrm
Library\Bee\artifacts\mvdfrm\UnityEngine.VehiclesModule.dll_6BE2F84746A19274.mvfrm
Library\Bee\artifacts\mvdfrm\UnityEngine.VFXModule.dll_04A901F1744D056F.mvfrm
Library\Bee\artifacts\mvdfrm\UnityEngine.VideoModule.dll_ADB6E12BB76BBDE2.mvfrm
Library\Bee\artifacts\mvdfrm\UnityEngine.VirtualTexturingModule.dll_5738626103709D5A.mvfrm
Library\Bee\artifacts\mvdfrm\UnityEngine.VRModule.dll_A0CF37EFA520ABE9.mvfrm
Library\Bee\artifacts\mvdfrm\UnityEngine.WindModule.dll_5F964C7A1FA66425.mvfrm
Library\Bee\artifacts\mvdfrm\UnityEngine.XRModule.dll_D38DFAF42E5AF947.mvfrm
Library\Bee\artifacts\mvdfrm\Unity.Android.Gradle.dll_1AC8639E7AAF0CF9.mvfrm
Library\Bee\artifacts\mvdfrm\Unity.Android.Types.dll_83698B4A521DF653.mvfrm
Library\Bee\artifacts\mvdfrm\Unity.Analytics.StandardEvents.dll_0C6F8DEFD26A3F9C.mvfrm
Library\Bee\artifacts\mvdfrm\Unity.Analytics.Editor.dll_22340A923A767A00.mvfrm
Library\Bee\artifacts\mvdfrm\Unity.Analytics.Tracker.dll_B1D0FA1AA18101B1.mvfrm
Library\Bee\artifacts\mvdfrm\Unity.Burst.Cecil.dll_77F77C02ABA2595B.mvfrm
Library\Bee\artifacts\mvdfrm\Unity.Burst.Cecil.Mdb.dll_F1896CFD6D019B58.mvfrm
Library\Bee\artifacts\mvdfrm\Unity.Burst.Cecil.Pdb.dll_08DBE56CEBB69CDB.mvfrm
Library\Bee\artifacts\mvdfrm\Unity.Burst.Cecil.Rocks.dll_BB752C9F7E74165B.mvfrm
Library\Bee\artifacts\mvdfrm\Unity.VisualScripting.Antlr3.Runtime.dll_B77F8D71F30E9325.mvfrm